<svg id="Flag_of_Europe" xmlns="http://www.w3.org/2000/svg" width="30" height="20" viewBox="0 0 30 20">
  <defs>
    <style>
      .cls-1 {
        fill: #039;
      }

      .cls-2 {
        fill: #fc0;
      }
    </style>
  </defs>
  <rect id="Rectángulo_3559" data-name="Rectángulo 3559" class="cls-1" width="30" height="20"/>
  <g id="Grupo_3571" data-name="Grupo 3571" transform="translate(7.025 2.195)">
    <g id="Grupo_3503" data-name="Grupo 3503" transform="translate(6.584 0)">
      <g id="c" transform="translate(0.683)">
        <path id="t" class="cls-2" d="M0,0V1.1H.549Z" transform="translate(0.522 0) rotate(18)"/>
        <path id="Trazado_24018" data-name="Trazado 24018" class="cls-2" d="M0,1.1V0H.549Z" transform="translate(0.861 1.044) rotate(162)"/>
      </g>
      <g id="a" transform="translate(0.715 0.262)">
        <g id="Grupo_3498" data-name="Grupo 3498" transform="translate(1.373 0) rotate(72)">
          <path id="t-2" data-name="t" class="cls-2" d="M0,0V1.1H.549Z" transform="translate(0.522 0) rotate(18)"/>
          <path id="Trazado_24019" data-name="Trazado 24019" class="cls-2" d="M0,1.1V0H.549Z" transform="translate(0.861 1.044) rotate(162)"/>
        </g>
        <g id="Grupo_3499" data-name="Grupo 3499" transform="matrix(-0.809, 0.588, -0.588, -0.809, 1.557, 1.416)">
          <path id="t-3" data-name="t" class="cls-2" d="M0,0V1.1H.549Z" transform="translate(0.522 0) rotate(18)"/>
          <path id="Trazado_24020" data-name="Trazado 24020" class="cls-2" d="M0,1.1V0H.549Z" transform="translate(0.861 1.044) rotate(162)"/>
        </g>
      </g>
      <g id="Grupo_3502" data-name="Grupo 3502" transform="translate(1.695 2.292) rotate(180)">
        <g id="Grupo_3500" data-name="Grupo 3500" transform="translate(0.219 1.655) rotate(-72)">
          <path id="t-4" data-name="t" class="cls-2" d="M0,1.1V0H.549Z" transform="translate(0.183 0.17) rotate(-18)"/>
          <path id="Trazado_24021" data-name="Trazado 24021" class="cls-2" d="M0,0V1.1H.549Z" transform="translate(0.522 1.213) rotate(-162)"/>
        </g>
        <g id="Grupo_3501" data-name="Grupo 3501" transform="matrix(-0.809, -0.588, 0.588, -0.809, 0.844, 1.595)">
          <path id="t-5" data-name="t" class="cls-2" d="M0,1.1V0H.549Z" transform="translate(0.183 0.17) rotate(-18)"/>
          <path id="Trazado_24022" data-name="Trazado 24022" class="cls-2" d="M0,0V1.1H.549Z" transform="translate(0.522 1.213) rotate(-162)"/>
        </g>
      </g>
    </g>
    <g id="Grupo_3509" data-name="Grupo 3509" transform="translate(6.584 13.167)">
      <g id="c-2" data-name="c" transform="translate(0.683 0)">
        <path id="t-6" data-name="t" class="cls-2" d="M0,0V1.1H.549Z" transform="translate(0.522 0) rotate(18)"/>
        <path id="Trazado_24023" data-name="Trazado 24023" class="cls-2" d="M0,1.1V0H.549Z" transform="translate(0.861 1.044) rotate(162)"/>
      </g>
      <g id="a-2" data-name="a" transform="translate(0.715 0.262)">
        <g id="Grupo_3504" data-name="Grupo 3504" transform="translate(1.373 0) rotate(72)">
          <path id="t-7" data-name="t" class="cls-2" d="M0,0V1.1H.549Z" transform="translate(0.522 0) rotate(18)"/>
          <path id="Trazado_24024" data-name="Trazado 24024" class="cls-2" d="M0,1.1V0H.549Z" transform="translate(0.861 1.044) rotate(162)"/>
        </g>
        <g id="Grupo_3505" data-name="Grupo 3505" transform="matrix(-0.809, 0.588, -0.588, -0.809, 1.557, 1.416)">
          <path id="t-8" data-name="t" class="cls-2" d="M0,0V1.1H.549Z" transform="translate(0.522 0) rotate(18)"/>
          <path id="Trazado_24025" data-name="Trazado 24025" class="cls-2" d="M0,1.1V0H.549Z" transform="translate(0.861 1.044) rotate(162)"/>
        </g>
      </g>
      <g id="Grupo_3508" data-name="Grupo 3508" transform="translate(1.695 2.292) rotate(180)">
        <g id="Grupo_3506" data-name="Grupo 3506" transform="translate(0.219 1.655) rotate(-72)">
          <path id="t-9" data-name="t" class="cls-2" d="M0,1.1V0H.549Z" transform="translate(0.183 0.17) rotate(-18)"/>
          <path id="Trazado_24026" data-name="Trazado 24026" class="cls-2" d="M0,0V1.1H.549Z" transform="translate(0.522 1.213) rotate(-162)"/>
        </g>
        <g id="Grupo_3507" data-name="Grupo 3507" transform="matrix(-0.809, -0.588, 0.588, -0.809, 0.844, 1.595)">
          <path id="t-10" data-name="t" class="cls-2" d="M0,1.1V0H.549Z" transform="translate(0.183 0.17) rotate(-18)"/>
          <path id="Trazado_24027" data-name="Trazado 24027" class="cls-2" d="M0,0V1.1H.549Z" transform="translate(0.522 1.213) rotate(-162)"/>
        </g>
      </g>
    </g>
    <g id="l" transform="translate(0 0.305)">
      <g id="Grupo_3515" data-name="Grupo 3515" transform="translate(0 6.279)">
        <g id="c-3" data-name="c" transform="translate(0.683 0)">
          <path id="t-11" data-name="t" class="cls-2" d="M0,0V1.1H.549Z" transform="translate(0.522 0) rotate(18)"/>
          <path id="Trazado_24028" data-name="Trazado 24028" class="cls-2" d="M0,1.1V0H.549Z" transform="translate(0.861 1.044) rotate(162)"/>
        </g>
        <g id="a-3" data-name="a" transform="translate(0.715 0.262)">
          <g id="Grupo_3510" data-name="Grupo 3510" transform="translate(1.373 0) rotate(72)">
            <path id="t-12" data-name="t" class="cls-2" d="M0,0V1.1H.549Z" transform="translate(0.522 0) rotate(18)"/>
            <path id="Trazado_24029" data-name="Trazado 24029" class="cls-2" d="M0,1.1V0H.549Z" transform="translate(0.861 1.044) rotate(162)"/>
          </g>
          <g id="Grupo_3511" data-name="Grupo 3511" transform="matrix(-0.809, 0.588, -0.588, -0.809, 1.557, 1.416)">
            <path id="t-13" data-name="t" class="cls-2" d="M0,0V1.1H.549Z" transform="translate(0.522 0) rotate(18)"/>
            <path id="Trazado_24030" data-name="Trazado 24030" class="cls-2" d="M0,1.1V0H.549Z" transform="translate(0.861 1.044) rotate(162)"/>
          </g>
        </g>
        <g id="Grupo_3514" data-name="Grupo 3514" transform="translate(1.695 2.292) rotate(180)">
          <g id="Grupo_3512" data-name="Grupo 3512" transform="translate(0.219 1.655) rotate(-72)">
            <path id="t-14" data-name="t" class="cls-2" d="M0,1.1V0H.549Z" transform="translate(0.183 0.17) rotate(-18)"/>
            <path id="Trazado_24031" data-name="Trazado 24031" class="cls-2" d="M0,0V1.1H.549Z" transform="translate(0.522 1.213) rotate(-162)"/>
          </g>
          <g id="Grupo_3513" data-name="Grupo 3513" transform="matrix(-0.809, -0.588, 0.588, -0.809, 0.844, 1.595)">
            <path id="t-15" data-name="t" class="cls-2" d="M0,1.1V0H.549Z" transform="translate(0.183 0.17) rotate(-18)"/>
            <path id="Trazado_24032" data-name="Trazado 24032" class="cls-2" d="M0,0V1.1H.549Z" transform="translate(0.522 1.213) rotate(-162)"/>
          </g>
        </g>
      </g>
      <g id="Grupo_3521" data-name="Grupo 3521" transform="matrix(-0.809, -0.588, 0.588, -0.809, 4.826, 3.27)">
        <g id="c-4" data-name="c" transform="translate(0.683 0)">
          <path id="t-16" data-name="t" class="cls-2" d="M0,0V1.1H.549Z" transform="translate(0.522 0) rotate(18)"/>
          <path id="Trazado_24033" data-name="Trazado 24033" class="cls-2" d="M0,1.1V0H.549Z" transform="translate(0.861 1.044) rotate(162)"/>
        </g>
        <g id="a-4" data-name="a" transform="translate(0.715 0.262)">
          <g id="Grupo_3516" data-name="Grupo 3516" transform="translate(1.373 0) rotate(72)">
            <path id="t-17" data-name="t" class="cls-2" d="M0,0V1.1H.549Z" transform="translate(0.522 0) rotate(18)"/>
            <path id="Trazado_24034" data-name="Trazado 24034" class="cls-2" d="M0,1.1V0H.549Z" transform="translate(0.861 1.044) rotate(162)"/>
          </g>
          <g id="Grupo_3517" data-name="Grupo 3517" transform="matrix(-0.809, 0.588, -0.588, -0.809, 1.557, 1.416)">
            <path id="t-18" data-name="t" class="cls-2" d="M0,0V1.1H.549Z" transform="translate(0.522 0) rotate(18)"/>
            <path id="Trazado_24035" data-name="Trazado 24035" class="cls-2" d="M0,1.1V0H.549Z" transform="translate(0.861 1.044) rotate(162)"/>
          </g>
        </g>
        <g id="Grupo_3520" data-name="Grupo 3520" transform="translate(1.695 2.292) rotate(180)">
          <g id="Grupo_3518" data-name="Grupo 3518" transform="translate(0.219 1.655) rotate(-72)">
            <path id="t-19" data-name="t" class="cls-2" d="M0,1.1V0H.549Z" transform="translate(0.183 0.17) rotate(-18)"/>
            <path id="Trazado_24036" data-name="Trazado 24036" class="cls-2" d="M0,0V1.1H.549Z" transform="translate(0.522 1.213) rotate(-162)"/>
          </g>
          <g id="Grupo_3519" data-name="Grupo 3519" transform="matrix(-0.809, -0.588, 0.588, -0.809, 0.844, 1.595)">
            <path id="t-20" data-name="t" class="cls-2" d="M0,1.1V0H.549Z" transform="translate(0.183 0.17) rotate(-18)"/>
            <path id="Trazado_24037" data-name="Trazado 24037" class="cls-2" d="M0,0V1.1H.549Z" transform="translate(0.522 1.213) rotate(-162)"/>
          </g>
        </g>
      </g>
      <g id="Grupo_3527" data-name="Grupo 3527" transform="matrix(-0.809, 0.588, -0.588, -0.809, 3.707, 4.264)">
        <g id="c-5" data-name="c" transform="translate(0.683 0)">
          <path id="t-21" data-name="t" class="cls-2" d="M0,0V1.1H.549Z" transform="translate(0.522 0) rotate(18)"/>
          <path id="Trazado_24038" data-name="Trazado 24038" class="cls-2" d="M0,1.1V0H.549Z" transform="translate(0.861 1.044) rotate(162)"/>
        </g>
        <g id="a-5" data-name="a" transform="translate(0.715 0.262)">
          <g id="Grupo_3522" data-name="Grupo 3522" transform="translate(1.373 0) rotate(72)">
            <path id="t-22" data-name="t" class="cls-2" d="M0,0V1.1H.549Z" transform="translate(0.522 0) rotate(18)"/>
            <path id="Trazado_24039" data-name="Trazado 24039" class="cls-2" d="M0,1.1V0H.549Z" transform="translate(0.861 1.044) rotate(162)"/>
          </g>
          <g id="Grupo_3523" data-name="Grupo 3523" transform="matrix(-0.809, 0.588, -0.588, -0.809, 1.557, 1.416)">
            <path id="t-23" data-name="t" class="cls-2" d="M0,0V1.1H.549Z" transform="translate(0.522 0) rotate(18)"/>
            <path id="Trazado_24040" data-name="Trazado 24040" class="cls-2" d="M0,1.1V0H.549Z" transform="translate(0.861 1.044) rotate(162)"/>
          </g>
        </g>
        <g id="Grupo_3526" data-name="Grupo 3526" transform="translate(1.695 2.292) rotate(180)">
          <g id="Grupo_3524" data-name="Grupo 3524" transform="translate(0.219 1.655) rotate(-72)">
            <path id="t-24" data-name="t" class="cls-2" d="M0,1.1V0H.549Z" transform="translate(0.183 0.17) rotate(-18)"/>
            <path id="Trazado_24041" data-name="Trazado 24041" class="cls-2" d="M0,0V1.1H.549Z" transform="translate(0.522 1.213) rotate(-162)"/>
          </g>
          <g id="Grupo_3525" data-name="Grupo 3525" transform="matrix(-0.809, -0.588, 0.588, -0.809, 0.844, 1.595)">
            <path id="t-25" data-name="t" class="cls-2" d="M0,1.1V0H.549Z" transform="translate(0.183 0.17) rotate(-18)"/>
            <path id="Trazado_24042" data-name="Trazado 24042" class="cls-2" d="M0,0V1.1H.549Z" transform="translate(0.522 1.213) rotate(-162)"/>
          </g>
        </g>
      </g>
      <g id="Grupo_3533" data-name="Grupo 3533" transform="translate(2.758 9.183) rotate(72)">
        <g id="c-6" data-name="c" transform="translate(0.683 0)">
          <path id="t-26" data-name="t" class="cls-2" d="M0,0V1.1H.549Z" transform="translate(0.522 0) rotate(18)"/>
          <path id="Trazado_24043" data-name="Trazado 24043" class="cls-2" d="M0,1.1V0H.549Z" transform="translate(0.861 1.044) rotate(162)"/>
        </g>
        <g id="a-6" data-name="a" transform="translate(0.715 0.262)">
          <g id="Grupo_3528" data-name="Grupo 3528" transform="translate(1.373 0) rotate(72)">
            <path id="t-27" data-name="t" class="cls-2" d="M0,0V1.1H.549Z" transform="translate(0.522 0) rotate(18)"/>
            <path id="Trazado_24044" data-name="Trazado 24044" class="cls-2" d="M0,1.1V0H.549Z" transform="translate(0.861 1.044) rotate(162)"/>
          </g>
          <g id="Grupo_3529" data-name="Grupo 3529" transform="matrix(-0.809, 0.588, -0.588, -0.809, 1.557, 1.416)">
            <path id="t-28" data-name="t" class="cls-2" d="M0,0V1.1H.549Z" transform="translate(0.522 0) rotate(18)"/>
            <path id="Trazado_24045" data-name="Trazado 24045" class="cls-2" d="M0,1.1V0H.549Z" transform="translate(0.861 1.044) rotate(162)"/>
          </g>
        </g>
        <g id="Grupo_3532" data-name="Grupo 3532" transform="translate(1.695 2.292) rotate(180)">
          <g id="Grupo_3530" data-name="Grupo 3530" transform="translate(0.219 1.655) rotate(-72)">
            <path id="t-29" data-name="t" class="cls-2" d="M0,1.1V0H.549Z" transform="translate(0.183 0.17) rotate(-18)"/>
            <path id="Trazado_24046" data-name="Trazado 24046" class="cls-2" d="M0,0V1.1H.549Z" transform="translate(0.522 1.213) rotate(-162)"/>
          </g>
          <g id="Grupo_3531" data-name="Grupo 3531" transform="matrix(-0.809, -0.588, 0.588, -0.809, 0.844, 1.595)">
            <path id="t-30" data-name="t" class="cls-2" d="M0,1.1V0H.549Z" transform="translate(0.183 0.17) rotate(-18)"/>
            <path id="Trazado_24047" data-name="Trazado 24047" class="cls-2" d="M0,0V1.1H.549Z" transform="translate(0.522 1.213) rotate(-162)"/>
          </g>
        </g>
      </g>
      <g id="Grupo_3539" data-name="Grupo 3539" transform="translate(5.168 11.593) rotate(72)">
        <g id="c-7" data-name="c" transform="translate(0.683 0)">
          <path id="t-31" data-name="t" class="cls-2" d="M0,0V1.1H.549Z" transform="translate(0.522 0) rotate(18)"/>
          <path id="Trazado_24048" data-name="Trazado 24048" class="cls-2" d="M0,1.1V0H.549Z" transform="translate(0.861 1.044) rotate(162)"/>
        </g>
        <g id="a-7" data-name="a" transform="translate(0.715 0.262)">
          <g id="Grupo_3534" data-name="Grupo 3534" transform="translate(1.373 0) rotate(72)">
            <path id="t-32" data-name="t" class="cls-2" d="M0,0V1.1H.549Z" transform="translate(0.522 0) rotate(18)"/>
            <path id="Trazado_24049" data-name="Trazado 24049" class="cls-2" d="M0,1.1V0H.549Z" transform="translate(0.861 1.044) rotate(162)"/>
          </g>
          <g id="Grupo_3535" data-name="Grupo 3535" transform="matrix(-0.809, 0.588, -0.588, -0.809, 1.557, 1.416)">
            <path id="t-33" data-name="t" class="cls-2" d="M0,0V1.1H.549Z" transform="translate(0.522 0) rotate(18)"/>
            <path id="Trazado_24050" data-name="Trazado 24050" class="cls-2" d="M0,1.1V0H.549Z" transform="translate(0.861 1.044) rotate(162)"/>
          </g>
        </g>
        <g id="Grupo_3538" data-name="Grupo 3538" transform="translate(1.695 2.292) rotate(180)">
          <g id="Grupo_3536" data-name="Grupo 3536" transform="translate(0.219 1.655) rotate(-72)">
            <path id="t-34" data-name="t" class="cls-2" d="M0,1.1V0H.549Z" transform="translate(0.183 0.17) rotate(-18)"/>
            <path id="Trazado_24051" data-name="Trazado 24051" class="cls-2" d="M0,0V1.1H.549Z" transform="translate(0.522 1.213) rotate(-162)"/>
          </g>
          <g id="Grupo_3537" data-name="Grupo 3537" transform="matrix(-0.809, -0.588, 0.588, -0.809, 0.844, 1.595)">
            <path id="t-35" data-name="t" class="cls-2" d="M0,1.1V0H.549Z" transform="translate(0.183 0.17) rotate(-18)"/>
            <path id="Trazado_24052" data-name="Trazado 24052" class="cls-2" d="M0,0V1.1H.549Z" transform="translate(0.522 1.213) rotate(-162)"/>
          </g>
        </g>
      </g>
    </g>
    <g id="Grupo_3570" data-name="Grupo 3570" transform="translate(15.577 14.898) rotate(180)">
      <g id="Grupo_3545" data-name="Grupo 3545" transform="translate(0 6.022)">
        <g id="c-8" data-name="c" transform="translate(0.683 1.079)">
          <path id="t-36" data-name="t" class="cls-2" d="M0,1.1V0H.549Z" transform="translate(0.183 0.17) rotate(-18)"/>
          <path id="Trazado_24053" data-name="Trazado 24053" class="cls-2" d="M0,0V1.1H.549Z" transform="translate(0.522 1.213) rotate(-162)"/>
        </g>
        <g id="a-8" data-name="a" transform="translate(0.715 0)">
          <g id="Grupo_3540" data-name="Grupo 3540" transform="translate(0.219 1.655) rotate(-72)">
            <path id="t-37" data-name="t" class="cls-2" d="M0,1.1V0H.549Z" transform="translate(0.183 0.17) rotate(-18)"/>
            <path id="Trazado_24054" data-name="Trazado 24054" class="cls-2" d="M0,0V1.1H.549Z" transform="translate(0.522 1.213) rotate(-162)"/>
          </g>
          <g id="Grupo_3541" data-name="Grupo 3541" transform="matrix(-0.809, -0.588, 0.588, -0.809, 0.844, 1.595)">
            <path id="t-38" data-name="t" class="cls-2" d="M0,1.1V0H.549Z" transform="translate(0.183 0.17) rotate(-18)"/>
            <path id="Trazado_24055" data-name="Trazado 24055" class="cls-2" d="M0,0V1.1H.549Z" transform="translate(0.522 1.213) rotate(-162)"/>
          </g>
        </g>
        <g id="Grupo_3544" data-name="Grupo 3544" transform="translate(1.695 2.03) rotate(180)">
          <g id="Grupo_3542" data-name="Grupo 3542" transform="translate(1.373 0) rotate(72)">
            <path id="t-39" data-name="t" class="cls-2" d="M0,0V1.1H.549Z" transform="translate(0.522 0) rotate(18)"/>
            <path id="Trazado_24056" data-name="Trazado 24056" class="cls-2" d="M0,1.1V0H.549Z" transform="translate(0.861 1.044) rotate(162)"/>
          </g>
          <g id="Grupo_3543" data-name="Grupo 3543" transform="matrix(-0.809, 0.588, -0.588, -0.809, 1.557, 1.416)">
            <path id="t-40" data-name="t" class="cls-2" d="M0,0V1.1H.549Z" transform="translate(0.522 0) rotate(18)"/>
            <path id="Trazado_24057" data-name="Trazado 24057" class="cls-2" d="M0,1.1V0H.549Z" transform="translate(0.861 1.044) rotate(162)"/>
          </g>
        </g>
      </g>
      <g id="Grupo_3551" data-name="Grupo 3551" transform="matrix(-0.809, 0.588, -0.588, -0.809, 6.173, 13.176)">
        <g id="c-9" data-name="c" transform="translate(0.683 1.079)">
          <path id="t-41" data-name="t" class="cls-2" d="M0,1.1V0H.549Z" transform="translate(0.183 0.17) rotate(-18)"/>
          <path id="Trazado_24058" data-name="Trazado 24058" class="cls-2" d="M0,0V1.1H.549Z" transform="translate(0.522 1.213) rotate(-162)"/>
        </g>
        <g id="a-9" data-name="a" transform="translate(0.715 0)">
          <g id="Grupo_3546" data-name="Grupo 3546" transform="translate(0.219 1.655) rotate(-72)">
            <path id="t-42" data-name="t" class="cls-2" d="M0,1.1V0H.549Z" transform="translate(0.183 0.17) rotate(-18)"/>
            <path id="Trazado_24059" data-name="Trazado 24059" class="cls-2" d="M0,0V1.1H.549Z" transform="translate(0.522 1.213) rotate(-162)"/>
          </g>
          <g id="Grupo_3547" data-name="Grupo 3547" transform="matrix(-0.809, -0.588, 0.588, -0.809, 0.844, 1.595)">
            <path id="t-43" data-name="t" class="cls-2" d="M0,1.1V0H.549Z" transform="translate(0.183 0.17) rotate(-18)"/>
            <path id="Trazado_24060" data-name="Trazado 24060" class="cls-2" d="M0,0V1.1H.549Z" transform="translate(0.522 1.213) rotate(-162)"/>
          </g>
        </g>
        <g id="Grupo_3550" data-name="Grupo 3550" transform="translate(1.695 2.03) rotate(180)">
          <g id="Grupo_3548" data-name="Grupo 3548" transform="translate(1.373) rotate(72)">
            <path id="t-44" data-name="t" class="cls-2" d="M0,0V1.1H.549Z" transform="translate(0.522 0) rotate(18)"/>
            <path id="Trazado_24061" data-name="Trazado 24061" class="cls-2" d="M0,1.1V0H.549Z" transform="translate(0.861 1.044) rotate(162)"/>
          </g>
          <g id="Grupo_3549" data-name="Grupo 3549" transform="matrix(-0.809, 0.588, -0.588, -0.809, 1.557, 1.416)">
            <path id="t-45" data-name="t" class="cls-2" d="M0,0V1.1H.549Z" transform="translate(0.522 0) rotate(18)"/>
            <path id="Trazado_24062" data-name="Trazado 24062" class="cls-2" d="M0,1.1V0H.549Z" transform="translate(0.861 1.044) rotate(162)"/>
          </g>
        </g>
      </g>
      <g id="Grupo_3557" data-name="Grupo 3557" transform="matrix(-0.809, -0.588, 0.588, -0.809, 2.36, 12.183)">
        <g id="c-10" data-name="c" transform="translate(0.683 1.079)">
          <path id="t-46" data-name="t" class="cls-2" d="M0,1.1V0H.549Z" transform="translate(0.183 0.17) rotate(-18)"/>
          <path id="Trazado_24063" data-name="Trazado 24063" class="cls-2" d="M0,0V1.1H.549Z" transform="translate(0.522 1.213) rotate(-162)"/>
        </g>
        <g id="a-10" data-name="a" transform="translate(0.715 0)">
          <g id="Grupo_3552" data-name="Grupo 3552" transform="translate(0.219 1.655) rotate(-72)">
            <path id="t-47" data-name="t" class="cls-2" d="M0,1.1V0H.549Z" transform="translate(0.183 0.17) rotate(-18)"/>
            <path id="Trazado_24064" data-name="Trazado 24064" class="cls-2" d="M0,0V1.1H.549Z" transform="translate(0.522 1.213) rotate(-162)"/>
          </g>
          <g id="Grupo_3553" data-name="Grupo 3553" transform="matrix(-0.809, -0.588, 0.588, -0.809, 0.844, 1.595)">
            <path id="t-48" data-name="t" class="cls-2" d="M0,1.1V0H.549Z" transform="translate(0.183 0.17) rotate(-18)"/>
            <path id="Trazado_24065" data-name="Trazado 24065" class="cls-2" d="M0,0V1.1H.549Z" transform="translate(0.522 1.213) rotate(-162)"/>
          </g>
        </g>
        <g id="Grupo_3556" data-name="Grupo 3556" transform="translate(1.695 2.03) rotate(180)">
          <g id="Grupo_3554" data-name="Grupo 3554" transform="translate(1.373) rotate(72)">
            <path id="t-49" data-name="t" class="cls-2" d="M0,0V1.1H.549Z" transform="translate(0.522 0) rotate(18)"/>
            <path id="Trazado_24066" data-name="Trazado 24066" class="cls-2" d="M0,1.1V0H.549Z" transform="translate(0.861 1.044) rotate(162)"/>
          </g>
          <g id="Grupo_3555" data-name="Grupo 3555" transform="matrix(-0.809, 0.588, -0.588, -0.809, 1.557, 1.416)">
            <path id="t-50" data-name="t" class="cls-2" d="M0,0V1.1H.549Z" transform="translate(0.522 0) rotate(18)"/>
            <path id="Trazado_24067" data-name="Trazado 24067" class="cls-2" d="M0,1.1V0H.549Z" transform="translate(0.861 1.044) rotate(162)"/>
          </g>
        </g>
      </g>
      <g id="Grupo_3563" data-name="Grupo 3563" transform="translate(0.579 4.701) rotate(-72)">
        <g id="c-11" data-name="c" transform="translate(0.683 1.079)">
          <path id="t-51" data-name="t" class="cls-2" d="M0,1.1V0H.549Z" transform="translate(0.183 0.17) rotate(-18)"/>
          <path id="Trazado_24068" data-name="Trazado 24068" class="cls-2" d="M0,0V1.1H.549Z" transform="translate(0.522 1.213) rotate(-162)"/>
        </g>
        <g id="a-11" data-name="a" transform="translate(0.715 0)">
          <g id="Grupo_3558" data-name="Grupo 3558" transform="translate(0.219 1.655) rotate(-72)">
            <path id="t-52" data-name="t" class="cls-2" d="M0,1.1V0H.549Z" transform="translate(0.183 0.17) rotate(-18)"/>
            <path id="Trazado_24069" data-name="Trazado 24069" class="cls-2" d="M0,0V1.1H.549Z" transform="translate(0.522 1.213) rotate(-162)"/>
          </g>
          <g id="Grupo_3559" data-name="Grupo 3559" transform="matrix(-0.809, -0.588, 0.588, -0.809, 0.844, 1.595)">
            <path id="t-53" data-name="t" class="cls-2" d="M0,1.1V0H.549Z" transform="translate(0.183 0.17) rotate(-18)"/>
            <path id="Trazado_24070" data-name="Trazado 24070" class="cls-2" d="M0,0V1.1H.549Z" transform="translate(0.522 1.213) rotate(-162)"/>
          </g>
        </g>
        <g id="Grupo_3562" data-name="Grupo 3562" transform="translate(1.695 2.03) rotate(180)">
          <g id="Grupo_3560" data-name="Grupo 3560" transform="translate(1.373 0) rotate(72)">
            <path id="t-54" data-name="t" class="cls-2" d="M0,0V1.1H.549Z" transform="translate(0.522 0) rotate(18)"/>
            <path id="Trazado_24071" data-name="Trazado 24071" class="cls-2" d="M0,1.1V0H.549Z" transform="translate(0.861 1.044) rotate(162)"/>
          </g>
          <g id="Grupo_3561" data-name="Grupo 3561" transform="matrix(-0.809, 0.588, -0.588, -0.809, 1.557, 1.416)">
            <path id="t-55" data-name="t" class="cls-2" d="M0,0V1.1H.549Z" transform="translate(0.522 0) rotate(18)"/>
            <path id="Trazado_24072" data-name="Trazado 24072" class="cls-2" d="M0,1.1V0H.549Z" transform="translate(0.861 1.044) rotate(162)"/>
          </g>
        </g>
      </g>
      <g id="Grupo_3569" data-name="Grupo 3569" transform="translate(2.988 2.292) rotate(-72)">
        <g id="c-12" data-name="c" transform="translate(0.683 1.079)">
          <path id="t-56" data-name="t" class="cls-2" d="M0,1.1V0H.549Z" transform="translate(0.183 0.17) rotate(-18)"/>
          <path id="Trazado_24073" data-name="Trazado 24073" class="cls-2" d="M0,0V1.1H.549Z" transform="translate(0.522 1.213) rotate(-162)"/>
        </g>
        <g id="a-12" data-name="a" transform="translate(0.715 0)">
          <g id="Grupo_3564" data-name="Grupo 3564" transform="translate(0.219 1.655) rotate(-72)">
            <path id="t-57" data-name="t" class="cls-2" d="M0,1.1V0H.549Z" transform="translate(0.183 0.17) rotate(-18)"/>
            <path id="Trazado_24074" data-name="Trazado 24074" class="cls-2" d="M0,0V1.1H.549Z" transform="translate(0.522 1.213) rotate(-162)"/>
          </g>
          <g id="Grupo_3565" data-name="Grupo 3565" transform="matrix(-0.809, -0.588, 0.588, -0.809, 0.844, 1.595)">
            <path id="t-58" data-name="t" class="cls-2" d="M0,1.1V0H.549Z" transform="translate(0.183 0.17) rotate(-18)"/>
            <path id="Trazado_24075" data-name="Trazado 24075" class="cls-2" d="M0,0V1.1H.549Z" transform="translate(0.522 1.213) rotate(-162)"/>
          </g>
        </g>
        <g id="Grupo_3568" data-name="Grupo 3568" transform="translate(1.695 2.03) rotate(180)">
          <g id="Grupo_3566" data-name="Grupo 3566" transform="translate(1.373 0) rotate(72)">
            <path id="t-59" data-name="t" class="cls-2" d="M0,0V1.1H.549Z" transform="translate(0.522 0) rotate(18)"/>
            <path id="Trazado_24076" data-name="Trazado 24076" class="cls-2" d="M0,1.1V0H.549Z" transform="translate(0.861 1.044) rotate(162)"/>
          </g>
          <g id="Grupo_3567" data-name="Grupo 3567" transform="matrix(-0.809, 0.588, -0.588, -0.809, 1.557, 1.416)">
            <path id="t-60" data-name="t" class="cls-2" d="M0,0V1.1H.549Z" transform="translate(0.522 0) rotate(18)"/>
            <path id="Trazado_24077" data-name="Trazado 24077" class="cls-2" d="M0,1.1V0H.549Z" transform="translate(0.861 1.044) rotate(162)"/>
          </g>
        </g>
      </g>
    </g>
  </g>
</svg>
