<svg xmlns="http://www.w3.org/2000/svg" width="15" height="15" viewBox="0 0 15 15">
  <g id="Grupo_3880" data-name="Grupo 3880" transform="translate(97.679)">
    <rect id="Rectángulo_3753" data-name="Rectángulo 3753" width="15" height="15" transform="translate(-97.679)" fill="none"/>
    <g id="Grupo_3879" data-name="Grupo 3879">
      <path id="Trazado_24238" data-name="Trazado 24238" d="M-95.747,9.215l3.5,3.5-.713.426a2.348,2.348,0,0,1-1.156.328l-.546.546a.164.164,0,0,1-.23,0l-2.151-2.151a.164.164,0,0,1,0-.23l.546-.546a2.345,2.345,0,0,1,.328-1.156Z" fill="#3877f4"/>
      <path id="Trazado_24239" data-name="Trazado 24239" d="M-95.589,8.851l3.7,3.7.4-.23.494.494a.162.162,0,0,0,.23,0l.173-.172,1.915,1.915a.7.7,0,0,0,1,0,.709.709,0,0,0,0-1l-1.915-1.915.253-.253a.162.162,0,0,0,0-.23l-.046-.046,4.946-2.84L-91.311,1.4Z" fill="#3877f4"/>
      <path id="Trazado_24240" data-name="Trazado 24240" d="M-83.384,8.174a.407.407,0,0,1-.576,0L-91.209.924a.406.406,0,0,1,0-.575.406.406,0,0,1,.575,0l7.25,7.25A.408.408,0,0,1-83.384,8.174Z" fill="#3877f4"/>
    </g>
  </g>
</svg>
