<svg xmlns="http://www.w3.org/2000/svg" width="100" height="99.601" viewBox="0 0 100 99.601">
  <g id="Grupo_4229" data-name="Grupo 4229" transform="translate(-7.132 230.417)">
    <g id="Grupo_4228" data-name="Grupo 4228" transform="translate(7.132 -230.417)">
      <path id="Trazado_24557" data-name="Trazado 24557" d="M100.541-195.8a1.239,1.239,0,0,1-1.238-1.237v-25.836a7.527,7.527,0,0,1,1.121-3.953l.694-1.121H45.706a1.239,1.239,0,0,1-1.238-1.238,1.239,1.239,0,0,1,1.238-1.237h61.146a7.557,7.557,0,0,1,7.549,7.549v17.751a1.239,1.239,0,0,1-1.237,1.238H101.778v6.847A1.238,1.238,0,0,1,100.541-195.8Zm6.311-32.147a5.08,5.08,0,0,0-5.074,5.074v16.514h10.149v-16.514A5.081,5.081,0,0,0,106.852-227.942Z" transform="translate(-14.884 230.417)" fill="#09cbcc"/>
      <path id="Trazado_24558" data-name="Trazado 24558" d="M28.576-121.839a7.558,7.558,0,0,1-7.549-7.549V-135.7a1.238,1.238,0,0,1,1.237-1.237h9.412v-16.725l-16.3,16.3A1.231,1.231,0,0,1,14.5-137a1.232,1.232,0,0,1-.875-.362,1.228,1.228,0,0,1-.361-.875,1.228,1.228,0,0,1,.361-.875l18.049-18.05v-22.261a1.239,1.239,0,0,1,1.238-1.237,1.238,1.238,0,0,1,1.237,1.237v19.788l3.475-3.477a1.231,1.231,0,0,1,.875-.361,1.23,1.23,0,0,1,.875.361l10.016,10.016,3.166-3.167-.171-.445a21.986,21.986,0,0,1-1.467-7.926,22.169,22.169,0,0,1,22.144-22.145,22.17,22.17,0,0,1,22.145,22.145,21.884,21.884,0,0,1-2.248,9.714l-.233.472,13.257,13.256a6.707,6.707,0,0,1-.037,9.475,6.708,6.708,0,0,1-4.738,1.975,6.633,6.633,0,0,1-4.664-1.868L95.3-132.82v3.432a7.557,7.557,0,0,1-7.549,7.549Zm5.575-34.3v19.2H81.437a1.238,1.238,0,0,1,1.237,1.237v4.339c0,.038-.011.168-.011.168s.011.176.011.214v1.59a5.081,5.081,0,0,0,5.075,5.075,5.081,5.081,0,0,0,5.075-5.076v-5.939l-9.617-9.617-.472.231a21.879,21.879,0,0,1-9.672,2.227,22.106,22.106,0,0,1-10.978-2.917,22.362,22.362,0,0,1-7.915-7.687l-.487-.795-3.417,3.417a1.225,1.225,0,0,1-.874.362,1.227,1.227,0,0,1-.875-.362L38.5-160.486ZM23.5-129.388a5.08,5.08,0,0,0,5.075,5.074H82.014l-.693-1.122a7.515,7.515,0,0,1-1.121-3.952v-1.59c0-.038.01-.164.01-.164s-.01-.18-.01-.219v-3.1H23.5Zm67.422-22.169a22.3,22.3,0,0,1-4.819,4.81l-.693.507,12.812,12.812a4.144,4.144,0,0,0,2.952,1.212,4.258,4.258,0,0,0,3.023-1.25,4.248,4.248,0,0,0,1.254-2.99,4.141,4.141,0,0,0-1.217-2.985L91.43-152.246Zm-35.4-4.166.265.483a19.686,19.686,0,0,0,17.28,10.279,19.693,19.693,0,0,0,19.67-19.67,19.692,19.692,0,0,0-19.67-19.67,19.693,19.693,0,0,0-19.67,19.67,19.684,19.684,0,0,0,.717,5.268l.34,1.213,12.593-12.594H60.335a1.239,1.239,0,0,1-1.238-1.238,1.239,1.239,0,0,1,1.238-1.238H69.8a1.239,1.239,0,0,1,1.237,1.238v9.466A1.238,1.238,0,0,1,69.8-161.28a1.239,1.239,0,0,1-1.238-1.237v-6.25Z" transform="translate(-8.406 221.356)" fill="#09cbcc"/>
      <path id="Trazado_24559" data-name="Trazado 24559" d="M88.409-145.429a1.238,1.238,0,0,1-1.237-1.237,1.238,1.238,0,0,1,1.237-1.237A11.264,11.264,0,0,0,99.66-159.153a1.239,1.239,0,0,1,1.237-1.238,1.239,1.239,0,0,1,1.238,1.238A13.741,13.741,0,0,1,88.409-145.429Z" transform="translate(-23.752 215.877)" fill="#09cbcc"/>
      <path id="Trazado_24560" data-name="Trazado 24560" d="M8.369-191.226a1.238,1.238,0,0,1-1.237-1.237A1.238,1.238,0,0,1,8.369-193.7h2.9v-9.414a1.239,1.239,0,0,1,1.238-1.238H21.19a1.239,1.239,0,0,1,1.237,1.238v9.414h4.627v-22.037a1.239,1.239,0,0,1,1.237-1.238h8.679a1.239,1.239,0,0,1,1.237,1.238V-193.7h4.642v-13.951a1.238,1.238,0,0,1,1.237-1.237h9.058a1.238,1.238,0,0,1,1.237,1.237V-193.7h2.536a1.238,1.238,0,0,1,1.237,1.237,1.238,1.238,0,0,1-1.237,1.237ZM45.321-193.7h6.584v-12.714H45.321Zm-15.794,0h6.2v-20.8h-6.2Zm-15.779,0h6.2v-8.177h-6.2Z" transform="translate(-7.132 227.626)" fill="#09cbcc"/>
      <path id="Trazado_24561" data-name="Trazado 24561" d="M70.6-214.5a1.238,1.238,0,0,1-1.237-1.237,1.239,1.239,0,0,1,1.237-1.238H85.879a1.239,1.239,0,0,1,1.237,1.238,1.238,1.238,0,0,1-1.237,1.237Z" transform="translate(-20.054 227.626)" fill="#09cbcc"/>
      <path id="Trazado_24562" data-name="Trazado 24562" d="M102.2-214.5a1.242,1.242,0,0,1-.874-.364,1.242,1.242,0,0,1-.363-.874,1.245,1.245,0,0,1,.363-.874,1.245,1.245,0,0,1,.874-.363,1.244,1.244,0,0,1,.875.363,1.244,1.244,0,0,1,.363.874,1.242,1.242,0,0,1-.363.874A1.243,1.243,0,0,1,102.2-214.5Z" transform="translate(-26.614 227.626)" fill="#09cbcc"/>
      <path id="Trazado_24563" data-name="Trazado 24563" d="M76.16-203.547a1.238,1.238,0,0,1-1.237-1.237,1.239,1.239,0,0,1,1.237-1.238h3.234a1.239,1.239,0,0,1,1.237,1.238,1.238,1.238,0,0,1-1.237,1.237Z" transform="translate(-21.208 225.352)" fill="#09cbcc"/>
      <path id="Trazado_24564" data-name="Trazado 24564" d="M89.883-203.547a1.238,1.238,0,0,1-1.237-1.237,1.239,1.239,0,0,1,1.237-1.238h9.756a1.239,1.239,0,0,1,1.238,1.238,1.239,1.239,0,0,1-1.238,1.237Z" transform="translate(-24.058 225.352)" fill="#09cbcc"/>
      <path id="Trazado_24565" data-name="Trazado 24565" d="M8.371-118.472a1.242,1.242,0,0,1-.873-.363,1.238,1.238,0,0,1-.364-.874,1.233,1.233,0,0,1,.361-.872,1.242,1.242,0,0,1,.876-.365,1.245,1.245,0,0,1,.875.363,1.242,1.242,0,0,1,.363.875,1.242,1.242,0,0,1-.363.874A1.25,1.25,0,0,1,8.371-118.472Z" transform="translate(-7.132 207.687)" fill="#09cbcc"/>
    </g>
    <rect id="Rectángulo_4187" data-name="Rectángulo 4187" width="99.6" height="99.6" transform="translate(7.532 -230.417)" fill="none"/>
  </g>
</svg>
