<svg xmlns="http://www.w3.org/2000/svg" width="100" height="100" viewBox="0 0 100 100">
  <g id="Grupo_4227" data-name="Grupo 4227" transform="translate(150.208 230.417)">
    <g id="Grupo_4226" data-name="Grupo 4226" transform="translate(-150.208 -230.415)">
      <path id="Trazado_24545" data-name="Trazado 24545" d="M-131.8-173.593a18.263,18.263,0,0,1-13.165-5.545,18.27,18.27,0,0,1-5.232-13.3A18.508,18.508,0,0,1-131.8-210.4a18.62,18.62,0,0,1,3.52.337l.628.123.181-.616A27.53,27.53,0,0,1-124-218.037a27.645,27.645,0,0,1,5.548-6.149A27.62,27.62,0,0,1-101-230.414a27.839,27.839,0,0,1,4.842.423,1.28,1.28,0,0,1,1.035,1.481,1.275,1.275,0,0,1-1.255,1.055,1.284,1.284,0,0,1-.227-.021A25.275,25.275,0,0,0-101-227.86a25.137,25.137,0,0,0-24.037,18.071l-.173.6.574.244a18.427,18.427,0,0,1,4.9,3.056,18.43,18.43,0,0,1,4.05,5.006,1.279,1.279,0,0,1-.5,1.736,1.283,1.283,0,0,1-.617.16,1.279,1.279,0,0,1-1.119-.66,15.866,15.866,0,0,0-3.489-4.313,15.966,15.966,0,0,0-5.75-3.191c-.172-.053-.327-.1-.474-.138a15.947,15.947,0,0,0-4.152-.554,15.942,15.942,0,0,0-15.86,15.466,15.738,15.738,0,0,0,4.506,11.456,15.731,15.731,0,0,0,11.338,4.775h8.423a1.278,1.278,0,0,1,1.277,1.277,1.279,1.279,0,0,1-1.277,1.278Z" transform="translate(150.208 230.414)" fill="#09cbcc"/>
      <path id="Trazado_24546" data-name="Trazado 24546" d="M-87.687-178.027a1.278,1.278,0,0,1-1.278-1.277,1.284,1.284,0,0,1,1.278-1.288,1.275,1.275,0,0,1,.9.372,1.252,1.252,0,0,1,.372.9A1.283,1.283,0,0,1-87.687-178.027Z" transform="translate(137.686 220.227)" fill="#09cbcc"/>
      <path id="Trazado_24547" data-name="Trazado 24547" d="M-144.821-125.831a5.393,5.393,0,0,1-5.387-5.387v-13.667a5.392,5.392,0,0,1,5.387-5.386H-126.9a5.393,5.393,0,0,1,5.387,5.386v.985l.917-.294a4.386,4.386,0,0,0,3.064-4.191V-167.9a1.28,1.28,0,0,1,1.278-1.278,1.28,1.28,0,0,1,1.278,1.278v19.511a6.946,6.946,0,0,1-1.71,4.562,6.958,6.958,0,0,1-4.225,2.317l-.6.089v10.2a5.393,5.393,0,0,1-5.387,5.387Zm0-21.885a2.835,2.835,0,0,0-2.832,2.832v13.667a2.835,2.835,0,0,0,2.832,2.832H-126.9a2.821,2.821,0,0,0,2.745-2.129h.076l.011-.469v-13.9a2.835,2.835,0,0,0-2.832-2.832Z" transform="translate(150.208 217.892)" fill="#09cbcc"/>
      <path id="Trazado_24548" data-name="Trazado 24548" d="M-100.009-118.245a5.393,5.393,0,0,1-5.387-5.386V-137.3a5.393,5.393,0,0,1,5.387-5.387h7.684V-169.6a1.279,1.279,0,0,1,1.278-1.278A1.278,1.278,0,0,1-89.77-169.6v26.912h7.685A5.393,5.393,0,0,1-76.7-137.3v13.667a5.393,5.393,0,0,1-5.387,5.386Zm10.52-9.2,6,6a1.252,1.252,0,0,1,.211.282l.2.36h.988a2.836,2.836,0,0,0,2.833-2.832v-4.5l-4.776-4.776Zm-13.353,2.114v1.7a2.836,2.836,0,0,0,2.833,2.832h13.553l-10.459-10.458Zm2.833-14.8a2.836,2.836,0,0,0-2.833,2.832v8.354l5.024-5.024a1.272,1.272,0,0,1,.9-.373,1.272,1.272,0,0,1,.9.373l4.717,4.717,6.363-6.363a1.271,1.271,0,0,1,.9-.374,1.269,1.269,0,0,1,.9.375l3.873,3.872V-137.3a2.837,2.837,0,0,0-2.833-2.833Z" transform="translate(141.046 218.24)" fill="#09cbcc"/>
      <path id="Trazado_24549" data-name="Trazado 24549" d="M-56.891-125.831a5.393,5.393,0,0,1-5.387-5.387v-10.2l-.607-.084a6.956,6.956,0,0,1-4.268-2.3,6.942,6.942,0,0,1-1.73-4.584V-167.9a1.28,1.28,0,0,1,1.278-1.278,1.279,1.279,0,0,1,1.277,1.278v19.511a4.353,4.353,0,0,0,.893,2.652,4.434,4.434,0,0,0,2.255,1.563l.9.27v-.943a5.4,5.4,0,0,1,5.387-5.427h17.924a5.35,5.35,0,0,1,3.807,1.579,5.351,5.351,0,0,1,1.58,3.807v13.667a5.393,5.393,0,0,1-5.387,5.387Zm0-21.885a2.835,2.835,0,0,0-2.832,2.832v13.667a2.835,2.835,0,0,0,2.832,2.832h17.924a2.835,2.835,0,0,0,2.832-2.832v-13.667a2.835,2.835,0,0,0-2.832-2.832Z" transform="translate(133.58 217.892)" fill="#09cbcc"/>
      <path id="Trazado_24550" data-name="Trazado 24550" d="M-59.253-195.174a10.349,10.349,0,0,1-10.338-10.338A10.349,10.349,0,0,1-59.253-215.85a10.349,10.349,0,0,1,10.338,10.338A10.349,10.349,0,0,1-59.253-195.174Zm0-18.122a7.792,7.792,0,0,0-7.784,7.784,7.792,7.792,0,0,0,7.784,7.784,7.792,7.792,0,0,0,7.784-7.784A7.792,7.792,0,0,0-59.253-213.3Z" transform="translate(133.725 227.436)" fill="#09cbcc"/>
      <path id="Trazado_24551" data-name="Trazado 24551" d="M-62.526-173.592a1.279,1.279,0,0,1-1.278-1.277,1.279,1.279,0,0,1,1.278-1.278h12.1a11.04,11.04,0,0,0,11.157-10.589,11.044,11.044,0,0,0-.98-4.938,11.135,11.135,0,0,0-3.01-3.942l-.6-.5-.433.653a1.262,1.262,0,0,1-.159.2l-4.555,4.555a1.267,1.267,0,0,1-.9.373,1.274,1.274,0,0,1-.657-.182l-2.6-1.561-3.873,1.6-.734,2.943a1.275,1.275,0,0,1-1.239.969h-6.44a1.275,1.275,0,0,1-1.239-.969l-.733-2.942L-71.3-192.08l-2.6,1.561a1.269,1.269,0,0,1-.657.183,1.27,1.27,0,0,1-.9-.374l-4.555-4.555a1.272,1.272,0,0,1-.191-1.561l1.562-2.6-1.605-3.871-2.943-.734a1.276,1.276,0,0,1-.969-1.239v-6.441a1.276,1.276,0,0,1,.969-1.239l2.942-.733,1.606-3.873-1.562-2.6a1.272,1.272,0,0,1,.191-1.561l4.554-4.555a1.269,1.269,0,0,1,.9-.374,1.284,1.284,0,0,1,.657.182l2.6,1.562,3.872-1.605.734-2.943a1.275,1.275,0,0,1,1.239-.968h6.441a1.277,1.277,0,0,1,1.24.968l.733,2.943,3.872,1.6,2.6-1.562a1.278,1.278,0,0,1,.657-.182,1.272,1.272,0,0,1,.9.374l4.556,4.554a1.277,1.277,0,0,1,.192,1.562l-1.562,2.6,1.6,3.871,2.943.734a1.276,1.276,0,0,1,.969,1.239v6.441a1.275,1.275,0,0,1-.969,1.239l-2.943.735-1.41,3.4.643.271a13.5,13.5,0,0,1,6.143,5.2,13.5,13.5,0,0,1,2.127,7.774,13.369,13.369,0,0,1-4.219,9.278,13.765,13.765,0,0,1-9.492,3.773ZM-71.4-194.785a1.26,1.26,0,0,1,.488.1l5.062,2.1a1.286,1.286,0,0,1,.751.871l.646,2.6h4.445l.648-2.6a1.283,1.283,0,0,1,.75-.87l5.062-2.1a1.26,1.26,0,0,1,.488-.1,1.275,1.275,0,0,1,.658.183l2.294,1.379,3.144-3.144-1.379-2.294a1.281,1.281,0,0,1-.085-1.147l2.1-5.062a1.282,1.282,0,0,1,.872-.75l2.6-.648v-4.443l-2.6-.648a1.282,1.282,0,0,1-.872-.75l-2.1-5.062a1.281,1.281,0,0,1,.085-1.147l1.379-2.294-3.143-3.144-2.3,1.379a1.273,1.273,0,0,1-.657.183,1.29,1.29,0,0,1-.489-.1l-5.062-2.1a1.286,1.286,0,0,1-.751-.871l-.647-2.6h-4.445l-.647,2.6a1.283,1.283,0,0,1-.75.871l-5.062,2.1a1.274,1.274,0,0,1-.488.1,1.282,1.282,0,0,1-.658-.182l-2.3-1.38-3.143,3.144,1.379,2.294a1.283,1.283,0,0,1,.086,1.147l-2.1,5.061a1.284,1.284,0,0,1-.872.752l-2.6.647v4.445l2.6.646a1.284,1.284,0,0,1,.872.75l2.1,5.063a1.282,1.282,0,0,1-.086,1.146l-1.379,2.294,3.143,3.144,2.3-1.379A1.275,1.275,0,0,1-71.4-194.785Z" transform="translate(136.703 230.414)" fill="#09cbcc"/>
      <path id="Trazado_24552" data-name="Trazado 24552" d="M-45.5-125.3a2.6,2.6,0,0,1-1.241-.317,2.585,2.585,0,0,1-1.344-2.268v-6.433a2.586,2.586,0,0,1,1.344-2.269,2.6,2.6,0,0,1,1.24-.317,2.581,2.581,0,0,1,1.395.409l5.018,3.216a2.576,2.576,0,0,1,1.19,2.176,2.573,2.573,0,0,1-1.19,2.177l-5.018,3.216A2.576,2.576,0,0,1-45.5-125.3Zm-.03-2.528,5.106-3.273-5.106-3.272Z" transform="translate(129.328 211.295)" fill="#09cbcc"/>
      <path id="Trazado_24553" data-name="Trazado 24553" d="M-128.094-124.9a1.276,1.276,0,0,1-1.177-.78l-.694-1.644h-5.821l-.694,1.644a1.276,1.276,0,0,1-1.178.78,1.275,1.275,0,0,1-.5-.1,1.279,1.279,0,0,1-.68-1.673l4.781-11.325a1.277,1.277,0,0,1,1.177-.78,1.276,1.276,0,0,1,1.177.78l4.781,11.325a1.272,1.272,0,0,1,.006.977,1.27,1.27,0,0,1-.687.7A1.282,1.282,0,0,1-128.094-124.9Zm-6.613-4.979h3.663l-1.831-4.339Z" transform="translate(147.903 211.677)" fill="#09cbcc"/>
      <path id="Trazado_24554" data-name="Trazado 24554" d="M-127.77-172.559a1.279,1.279,0,0,1-1.277-1.278,1.279,1.279,0,0,1,1.277-1.278h6.536a1.279,1.279,0,0,1,1.277,1.278,1.279,1.279,0,0,1-1.277,1.278Z" transform="translate(145.881 219.107)" fill="#09cbcc"/>
      <path id="Trazado_24555" data-name="Trazado 24555" d="M-127.77-184.26a1.279,1.279,0,0,1-1.277-1.278,1.279,1.279,0,0,1,1.277-1.278h6.536a1.279,1.279,0,0,1,1.277,1.278,1.279,1.279,0,0,1-1.277,1.278Z" transform="translate(145.881 221.5)" fill="#09cbcc"/>
      <path id="Trazado_24556" data-name="Trazado 24556" d="M-137.645-184.26a1.287,1.287,0,0,1-.9-.375,1.287,1.287,0,0,1-.375-.9,1.285,1.285,0,0,1,.375-.9,1.282,1.282,0,0,1,.9-.374,1.278,1.278,0,0,1,.9.373,1.278,1.278,0,0,1,.375.9,1.278,1.278,0,0,1-.373.9A1.288,1.288,0,0,1-137.645-184.26Z" transform="translate(147.901 221.499)" fill="#09cbcc"/>
    </g>
    <rect id="Rectángulo_4186" data-name="Rectángulo 4186" width="100" height="100" transform="translate(-150.208 -230.417)" fill="none"/>
  </g>
</svg>
