<svg id="Logo_Venezuela" data-name="Logo Venezuela" xmlns="http://www.w3.org/2000/svg" xmlns:xlink="http://www.w3.org/1999/xlink" width="197.835" height="23.362" viewBox="0 0 197.835 23.362">
  <defs>
    <linearGradient id="linear-gradient" x1="-0.04" y1="0.038" x2="1.149" y2="1.051" gradientUnits="objectBoundingBox">
      <stop offset="0" stop-color="#ffd600"/>
      <stop offset="1" stop-color="#f16400"/>
    </linearGradient>
    <linearGradient id="linear-gradient-2" x1="0.216" y1="1.062" x2="1.062" y2="-0.007" gradientUnits="objectBoundingBox">
      <stop offset="0" stop-color="#09cbd1"/>
      <stop offset="1" stop-color="#18ffff"/>
    </linearGradient>
    <linearGradient id="linear-gradient-3" x1="0.141" y1="0.845" x2="0.802" y2="-0.306" gradientUnits="objectBoundingBox">
      <stop offset="0" stop-color="#ff1744"/>
      <stop offset="1" stop-color="#af004f"/>
    </linearGradient>
  </defs>
  <g id="VE" transform="translate(-249.063 31.393)" style="isolation: isolate">
    <g id="Grupo_3673" data-name="Grupo 3673" style="isolation: isolate">
      <path id="Trazado_24180" data-name="Trazado 24180" d="M438.284-25.831l1.807-5.562h1.357l-2.558,7.11h-1.2l-2.548-7.11H436.5Z" fill="#fff"/>
      <path id="Trazado_24181" data-name="Trazado 24181" d="M446.4-27.457h-2.92v2.187H446.9v.987h-4.648v-7.11h4.614v1h-3.379v1.962h2.92Z" fill="#fff"/>
    </g>
  </g>
  <g id="Grupo_3675" data-name="Grupo 3675" transform="translate(-411.059 -195.49)">
    <g id="Grupo_3264" data-name="Grupo 3264" transform="translate(459.791 198.392)">
      <g id="Grupo_3263" data-name="Grupo 3263" transform="translate(83.674 4.615)">
        <g id="Grupo_3261" data-name="Grupo 3261" transform="translate(7.69 7.781)">
          <path id="Trazado_3798" data-name="Trazado 3798" d="M1160.478,277.035s0,.019,0,.053v-.053Z" transform="translate(-1159.978 -277.035)" fill="#fff"/>
          <path id="Trazado_3799" data-name="Trazado 3799" d="M1157.82,283.609c.029-.036.057-.072.084-.108C1157.877,283.537,1157.849,283.573,1157.82,283.609Z" transform="translate(-1157.82 -282.288)" fill="#fff"/>
          <path id="Trazado_3800" data-name="Trazado 3800" d="M1159.073,281.72l-.023.051c-.009.019-.021.038-.032.056C1159.04,281.792,1159.057,281.756,1159.073,281.72Z" transform="translate(-1158.794 -280.841)" fill="#fff"/>
          <path id="Trazado_3801" data-name="Trazado 3801" d="M1159.349,281.248c-.007.019-.015.038-.023.055l-.017.034C1159.325,281.306,1159.338,281.276,1159.349,281.248Z" transform="translate(-1159.031 -280.458)" fill="#fff"/>
          <path id="Trazado_3802" data-name="Trazado 3802" d="M1159.634,280.6a.08.08,0,0,1-.006.019.6.6,0,0,1-.026.064C1159.613,280.659,1159.625,280.63,1159.634,280.6Z" transform="translate(-1159.268 -279.934)" fill="#fff"/>
          <path id="Trazado_3803" data-name="Trazado 3803" d="M1159.8,280.182c-.006.023-.013.045-.021.068,0,0,0,.008-.006.011C1159.782,280.235,1159.792,280.208,1159.8,280.182Z" transform="translate(-1159.407 -279.592)" fill="#fff"/>
          <path id="Trazado_3804" data-name="Trazado 3804" d="M1160.145,278.282v.008c0,.011,0,.022-.006.036s-.011.055-.017.085-.007.036-.013.055a.583.583,0,0,1-.015.059C1160.117,278.433,1160.134,278.352,1160.145,278.282Z" transform="translate(-1159.667 -278.048)" fill="#fff"/>
          <path id="Trazado_3805" data-name="Trazado 3805" d="M1160.383,277.558a.179.179,0,0,1,0,.03c0,.024-.006.051-.009.079l-.006.023c.006-.047.011-.089.015-.123A.014.014,0,0,0,1160.383,277.558Z" transform="translate(-1159.888 -277.46)" fill="#fff"/>
          <path id="Trazado_3806" data-name="Trazado 3806" d="M1160.47,277.035s0,.019,0,.053a.069.069,0,0,1,0,.019c0-.045,0-.072,0-.072Z" transform="translate(-1159.969 -277.035)" fill="#fff"/>
        </g>
        <g id="Grupo_3262" data-name="Grupo 3262">
          <path id="Trazado_3807" data-name="Trazado 3807" d="M1128.161,235.558v7.781c0,.021,0,.041,0,.06a.222.222,0,0,1,0,.036,4.447,4.447,0,0,1-1.468,3.443l-.013.013a4.7,4.7,0,0,1-1.66,1.07,6.9,6.9,0,0,1-2.492.425h-.03l-.055,0a.119.119,0,0,0,.025,0,6.9,6.9,0,0,1-2.492-.425,4.7,4.7,0,0,1-1.66-1.07.043.043,0,0,1-.013-.013,4.456,4.456,0,0,1-1.468-3.41c0-.015,0-.028,0-.042,0-.056,0-.087,0-.087v-7.781h3.145v7.781h0s0,.019,0,.053a.084.084,0,0,0,0,.019.083.083,0,0,1,0,.022v0a.19.19,0,0,0,0,.03c0,.024.006.051.009.079l.006.034c0,.011,0,.023.006.036s.011.056.017.085.01.036.013.055a.554.554,0,0,0,.015.059.942.942,0,0,0,.034.115c.006.023.013.045.021.068l.005.011.006.019c.008.021.017.043.026.064,0,0,0,0,0,.006a.1.1,0,0,0,.005.015.773.773,0,0,0,.03.072l.017.034.023.051c.012.019.021.038.032.056s.032.059.051.089a.17.17,0,0,1,.011.021.137.137,0,0,1,.011.019.064.064,0,0,1,.01.013c.015.025.032.051.051.075a.036.036,0,0,1,.008.009,1.3,1.3,0,0,0,.083.107s0,0,0,0,.006.008.009.013.01.009.013.015l.015.015c.025.028.049.056.077.085a3.044,3.044,0,0,0,3.814,0c.042-.043.081-.087.117-.13a1.354,1.354,0,0,0,.083-.107.031.031,0,0,0,.007-.009.651.651,0,0,0,.051-.075.1.1,0,0,0,.009-.013.126.126,0,0,1,.011-.019.071.071,0,0,0,.011-.021.828.828,0,0,0,.051-.089c.011-.019.023-.038.032-.056l.023-.051.017-.034a.684.684,0,0,0,.03-.072.031.031,0,0,0,.006-.015s0,0,0-.006a.574.574,0,0,0,.026-.064.081.081,0,0,0,.006-.019s0-.008.006-.011c.007-.023.015-.045.021-.068a.922.922,0,0,0,.034-.115c.006-.019.011-.04.015-.059s.009-.038.013-.055.011-.058.017-.085,0-.025.005-.036l.006-.034c0-.028.005-.055.009-.079a.178.178,0,0,0,0-.03v0a.093.093,0,0,0,0-.022.079.079,0,0,0,0-.019c0-.034,0-.053,0-.053h0v-7.781Z" transform="translate(-1116.828 -235.558)" fill="#fff"/>
          <path id="Trazado_3808" data-name="Trazado 3808" d="M1133.612,277.567v.021a.2.2,0,0,1,0-.03A.022.022,0,0,1,1133.612,277.567Z" transform="translate(-1130.462 -269.679)" fill="#fff"/>
          <path id="Trazado_3809" data-name="Trazado 3809" d="M1160.448,277.558a.19.19,0,0,1,0,.03v-.021A.014.014,0,0,0,1160.448,277.558Z" transform="translate(-1152.263 -269.679)" fill="#fff"/>
          <path id="Trazado_3810" data-name="Trazado 3810" d="M1133.581,277.035v.053c0-.034,0-.053,0-.053Z" transform="translate(-1130.437 -269.254)" fill="#fff"/>
          <path id="Trazado_3811" data-name="Trazado 3811" d="M1135.884,283.609q-.045-.053-.084-.108C1135.826,283.537,1135.854,283.573,1135.884,283.609Z" transform="translate(-1132.241 -274.507)" fill="#fff"/>
          <path id="Trazado_3812" data-name="Trazado 3812" d="M1133.583,277.107a.078.078,0,0,1,0-.019c0-.034,0-.053,0-.053h0S1133.581,277.061,1133.583,277.107Z" transform="translate(-1130.437 -269.254)" fill="#fff"/>
          <path id="Trazado_3813" data-name="Trazado 3813" d="M1133.627,277.69l-.005-.023c0-.028-.006-.055-.01-.079a.2.2,0,0,1,0-.03.022.022,0,0,1,0,.009C1133.615,277.6,1133.621,277.643,1133.627,277.69Z" transform="translate(-1130.462 -269.679)" fill="#fff"/>
          <path id="Trazado_3814" data-name="Trazado 3814" d="M1133.751,278.523c-.006-.019-.011-.04-.015-.059s-.008-.036-.013-.055-.011-.058-.017-.085,0-.025-.006-.036v-.008C1133.711,278.352,1133.728,278.433,1133.751,278.523Z" transform="translate(-1130.535 -270.267)" fill="#fff"/>
          <path id="Trazado_3815" data-name="Trazado 3815" d="M1134.178,280.261l-.006-.011c-.007-.023-.015-.045-.021-.068C1134.16,280.208,1134.169,280.235,1134.178,280.261Z" transform="translate(-1130.902 -271.81)" fill="#fff"/>
          <path id="Trazado_3816" data-name="Trazado 3816" d="M1134.325,280.687c-.009-.021-.019-.043-.026-.064l-.006-.019C1134.3,280.63,1134.314,280.659,1134.325,280.687Z" transform="translate(-1131.016 -272.153)" fill="#fff"/>
          <path id="Trazado_3817" data-name="Trazado 3817" d="M1134.585,281.337l-.017-.034-.023-.055C1134.556,281.276,1134.57,281.306,1134.585,281.337Z" transform="translate(-1131.221 -272.676)" fill="#fff"/>
          <path id="Trazado_3818" data-name="Trazado 3818" d="M1134.811,281.827c-.011-.019-.021-.038-.032-.056l-.022-.051C1134.773,281.756,1134.79,281.792,1134.811,281.827Z" transform="translate(-1131.393 -273.06)" fill="#fff"/>
          <path id="Trazado_3819" data-name="Trazado 3819" d="M1146.9,303.93h0Z" transform="translate(-1141.233 -291.102)" fill="#fff"/>
        </g>
      </g>
      <path id="Trazado_3820" data-name="Trazado 3820" d="M967.956,232.223c-7.015,2.322-6.979-3.773-6.979-3.773V216.708l3.144-.425V219.9h3.4v2.759h-3.4V228.2c0,2.747,3.046,1.427,3.046,1.427Z" transform="translate(-906.541 -215.284)" fill="#fff"/>
      <rect id="Rectángulo_3141" data-name="Rectángulo 3141" width="3.144" height="12.663" transform="translate(10.499 4.614)" fill="#fff"/>
      <path id="Trazado_3821" data-name="Trazado 3821" d="M1309.8,273.474c.008-.035.015-.07.022-.105-.007.036-.014.072-.022.108Z" transform="translate(-1189.925 -261.66)" fill="#fff"/>
      <path id="Trazado_3822" data-name="Trazado 3822" d="M1309.824,264.791c-.007-.035-.014-.07-.022-.1v0C1309.81,264.72,1309.817,264.755,1309.824,264.791Z" transform="translate(-1189.925 -254.605)" fill="#fff"/>
      <path id="Trazado_3823" data-name="Trazado 3823" d="M1006.812,234.729h-2.767v12.663h3.144V240.4a2.721,2.721,0,0,1,2.7-2.912s2.421-.122,2.452,3.2v6.706h3.144v-7.177a2.756,2.756,0,0,1,2.782-2.727c2.29,0,2.264,2.9,2.264,2.9v7h3.05v-7.082s.267-5.768-5.345-5.768a4.826,4.826,0,0,0-4.072,2.341,4.082,4.082,0,0,0-3.584-2.344,3.661,3.661,0,0,0-3.4,1.684Z" transform="translate(-941.529 -230.114)" fill="#fff"/>
      <path id="Trazado_3824" data-name="Trazado 3824" d="M1197.315,240.216v7.177h-3.144v-6.706c-.032-3.317-2.453-3.195-2.453-3.195a2.72,2.72,0,0,0-2.7,2.912v6.988h-3.144V234.73h2.767l.378,1.493a3.659,3.659,0,0,1,3.4-1.684S1197.315,234.572,1197.315,240.216Z" transform="translate(-1089.244 -230.115)" fill="#fff"/>
      <path id="Trazado_3825" data-name="Trazado 3825" d="M831.539,224.617,836.6,219.9h-3.772l-4.575,4.273v-7.885l-3.143.425v15.855h3.143v-4.9h.011l1.044-.973,4.311,5.8h3.773Z" transform="translate(-796.166 -215.284)" fill="#fff"/>
      <path id="Trazado_3826" data-name="Trazado 3826" d="M889.98,234.553a6.178,6.178,0,0,0-6.661,6.366s-.177,6.7,6.725,6.65a7.689,7.689,0,0,0,5.5-1.932l-1.858-1.877s-5.329,3.354-7.2-1.615h9.892S897.133,234.553,889.98,234.553Zm-3.4,5.046a3.5,3.5,0,0,1,3.49-2.375,3.161,3.161,0,0,1,3.318,2.375Z" transform="translate(-843.452 -230.127)" fill="#fff"/>
      <circle id="Elipse_1558" data-name="Elipse 1558" cx="1.745" cy="1.745" r="1.745" transform="translate(10.326 0)" fill="#fff"/>
      <path id="Trazado_3827" data-name="Trazado 3827" d="M1264.687,216.708v4.9a5.825,5.825,0,0,0-4.344-1.991,6.634,6.634,0,0,0,0,13.221,5.823,5.823,0,0,0,4.344-1.992l.377,1.713h2.766V216.283Zm-3.648,13.4a3.88,3.88,0,1,1,3.648-4.747c.008.036.015.071.022.107s.012.063.017.094.01.062.015.093.005.033.007.05.005.04.008.06,0,.031.005.047,0,.029,0,.044,0,.037.005.057,0,.042,0,.063c0,.047.006.094.007.141s0,.074,0,.111,0,.074,0,.111,0,.093-.007.14c0,.022,0,.043,0,.065s0,.032,0,.048,0,.04-.006.06,0,.019,0,.029c0,.025-.006.051-.01.076a.263.263,0,0,1,0,.034c0,.029-.008.058-.013.087a.009.009,0,0,1,0,.005c-.005.035-.011.07-.018.1s-.014.072-.022.108A3.776,3.776,0,0,1,1261.039,230.11Z" transform="translate(-1144.81 -215.284)" fill="#fff"/>
      <path id="Trazado_3828" data-name="Trazado 3828" d="M1339.627,234.553a6.508,6.508,0,1,0,6.508,6.508A6.509,6.509,0,0,0,1339.627,234.553Zm0,10.069a3.561,3.561,0,1,1,3.561-3.562A3.561,3.561,0,0,1,1339.627,244.622Z" transform="translate(-1208.867 -230.127)" fill="#fff"/>
      <path id="Trazado_3829" data-name="Trazado 3829" d="M757.839,244.622a3.561,3.561,0,1,1,2.973-5.521l2.892-.868a6.508,6.508,0,1,0,0,5.655l-2.892-.868A3.553,3.553,0,0,1,757.839,244.622Z" transform="translate(-736.226 -230.127)" fill="#fff"/>
      <path id="Trazado_3830" data-name="Trazado 3830" d="M680.076,232.094c-7.015,2.322-6.979-3.773-6.979-3.773v-5.793h-2.279V219.77H673.1v-3.191l3.144-.425v3.616h3.4v2.759h-3.4v5.545c0,2.747,3.046,1.427,3.046,1.427Z" transform="translate(-670.817 -215.179)" fill="#fff"/>
    </g>
    <path id="Trazado_3831" data-name="Trazado 3831" d="M498.8,220.544c-3.818,6.958-6.636,7.641-7.056,7.707a2.958,2.958,0,0,1-1.171-.323,11.271,11.271,0,0,1-3.837-4.157q-.349-.6-.679-1.156c-.006-.008-.009-.015-.015-.024-.957-1.619-1.807-3.017-2.561-4.223-.015-.024-.03-.047-.043-.069,3.895-6.955,6.746-7.547,7.1-7.6h0a2.944,2.944,0,0,1,1.189.325,11.264,11.264,0,0,1,3.837,4.155c.233.4.458.782.679,1.156a.192.192,0,0,1,.015.026C497.206,217.962,498.047,219.347,498.8,220.544Z" transform="translate(-58.797 -12.358)" fill="url(#linear-gradient)"/>
    <path id="Trazado_3832" data-name="Trazado 3832" d="M547.752,206.752c-.677,1.39-4.337,8.682-6.649,9.146h-13.69l.054-.006c.42-.066,3.238-.749,7.056-7.707a76.576,76.576,0,0,0,5.257-12.579.169.169,0,0,1,.3-.045L543.235,200a4.642,4.642,0,0,0-.22,1.049c-.154,1.625.52,3.017,1.5,3.109a1.48,1.48,0,0,0,1.236-.61l1.964,2.767A.424.424,0,0,1,547.752,206.752Z" transform="translate(-94.526 0)" fill="url(#linear-gradient-2)"/>
    <path id="Trazado_3833" data-name="Trazado 3833" d="M431.779,210.682a.266.266,0,0,0-.036,0h0c-.358.049-3.21.642-7.1,7.6a75.889,75.889,0,0,0-5.427,12.793.174.174,0,0,1-.306.047l-3.242-4.514a4.635,4.635,0,0,0,.229-1.071c.156-1.632-.527-3.032-1.529-3.126a1.516,1.516,0,0,0-1.264.625l-1.959-2.726a.426.426,0,0,1-.036-.437c.69-1.4,4.411-8.726,6.759-9.191Z" transform="translate(0 -12.342)" fill="url(#linear-gradient-3)"/>
  </g>
</svg>
